{
  "$schema": "https://docs.renovatebot.com/renovate-schema.json",
  "extends": [
    "config:base"
  ],
  "minimumReleaseAge": "7",
  "internalChecksFilter": "strict",
  "rebaseWhen": "behind-base-branch",
  "postUpdateOptions": ["gomodTidy"],
  "prConcurrentLimit": 5,
  "prHourlyLimit": 2,
  "packageRules": [
    {
      "matchUpdateTypes": ["patch"],
      "automerge": true,
      "automergeType": "branch"
    }
  ]
}
